Project 1: Wrangling, Exploration, Visualization
…
 The following is the frequency distribution for the categorical variables

# Country
df %>% group_by(country) %>% summarise(n = n()) %>% mutate(freq = n/sum(n)) %>% 
    arrange(desc(n))

## # A tibble: 142 x 3
##    country                          n    freq
##    <chr>                        <int>   <dbl>
##  1 United States                  377 0.548  
##  2 United States,Canada            29 0.0422 
##  3 United States,United Kingdom    25 0.0363 
##  4 United Kingdom,United States    20 0.0291 
##  5 United States,Germany           13 0.0189 
##  6 United Kingdom                  12 0.0174 
##  7 Canada                           8 0.0116 
##  8 Germany,United States            8 0.0116 
##  9 India                            6 0.00872
## 10 United States,Mexico             6 0.00872
## #  with 132 more rows

df %>% group_by(genres) %>% summarise(n = n()) %>% mutate(freq = n/sum(n)) %>% 
    arrange(desc(n))

## # A tibble: 292 x 3
##    genres                          n   freq
##    <chr>                       <int>  <dbl>
##  1 Comedy                         25 0.0363
##  2 Comedy,Drama,Romance           23 0.0334
##  3 Comedy,Romance                 22 0.0320
##  4 Comedy,Drama                   20 0.0291
##  5 Drama                          19 0.0276
##  6 Horror,Mystery,Thriller        19 0.0276
##  7 Crime,Drama,Thriller           16 0.0233
##  8 Action,Crime,Drama,Thriller    14 0.0203
##  9 Action,Crime,Thriller          14 0.0203
## 10 Drama,Romance                  14 0.0203
## #  with 282 more rows

df %>% group_by(language) %>% summarise(n = n()) %>% mutate(freq = n/sum(n)) %>% 
    arrange(desc(n))

## # A tibble: 140 x 3
##    language              n    freq
##    <chr>             <int>   <dbl>
##  1 English             407 0.592  
##  2 English,Spanish      40 0.0581 
##  3 English,French       19 0.0276 
##  4 English,German       13 0.0189 
##  5 English,Russian      12 0.0174 
##  6 English,Italian      10 0.0145 
##  7 English,Mandarin      7 0.0102 
##  8 English,Cantonese     5 0.00727
##  9 English,Japanese      5 0.00727
## 10 English,Latin         5 0.00727
## #  with 130 more rows

df %>% group_by(directors) %>% summarise(n = n()) %>% mutate(freq = n/sum(n)) %>% 
    arrange(desc(n))

## # A tibble: 509 x 3
##    directors                n    freq
##    <chr>                <int>   <dbl>
##  1 <NA>                    16 0.0233 
##  2 Oliver Stone             5 0.00727
##  3 Steven Spielberg         5 0.00727
##  4 Barry Levinson           4 0.00581
##  5 David Fincher            4 0.00581
##  6 Jay Roach                4 0.00581
##  7 Martin Scorsese          4 0.00581
##  8 Paul Thomas Anderson     4 0.00581
##  9 William Friedkin         4 0.00581
## 10 Woody Allen              4 0.00581
## #  with 499 more rows
…
Now lets compute the difference between the highest and lowest rated movie on Netflix for each given year.

# Custom range statistic function
range <- function(x) {
    max(x) - min(x)
}

df %>% group_by(netflix, year) %>% mutate(rotten_tomatoes = as.numeric(rotten_tomatoes)) %>% 
    filter(netflix == 1) %>% summarize(rotten_tomatoes_range = range(rotten_tomatoes)) %>% 
    arrange(desc(rotten_tomatoes_range))

## # A tibble: 42 x 3
## # Groups:   netflix [1]
##    netflix  year rotten_tomatoes_range
##      <dbl> <dbl>                 <dbl>
##  1       1  1998                    50
##  2       1  2015                    45
##  3       1  2018                    42
##  4       1  2010                    41
##  5       1  2012                    39
##  6       1  2008                    34
##  7       1  2006                    28
##  8       1  1991                    26
##  9       1  2013                    25
## 10       1  2009                    24
## #  with 32 more rows
…
